[
	{
		"type": "CAN-Bus",
		"name": "CAN Bus",
		"params": {
			"Frequency": 10,
			"Topic": "/vehicle_state_report"
		},
		"transform": {
			"x": 0,
			"y": 0,
			"z": 0,
			"pitch": 0,
			"yaw": 0,
			"roll": 0
		}
	},
	{
		"type": "GPS Device",
		"name": "GPS",
		"params": {
			"Frequency": 12.5,
			"Topic": "/nmea_sentence",
			"Frame": "gps",
			"IgnoreMapOrigin": true
		},
		"transform": {
			"x": 0,
			"y": 0,
			"z": 0,
			"pitch": 0,
			"yaw": 0,
			"roll": 0
		}
	},
	{
		"type": "GPS Odometry",
		"name": "GPS Odometry",
		"params": {
			"Frequency": 12.5,
			"Topic": "/lgsvl_odom",
			"Frame": "gps",
			"IgnoreMapOrigin": true
		},
		"transform": {
			"x": 0,
			"y": 0,
			"z": 0,
			"pitch": 0,
			"yaw": 0,
			"roll": 0
		}
	},
	{
		"type": "IMU",
		"name": "IMU",
		"params": {
			"Topic": "/imu_raw",
			"Frame": "imu"
		},
		"transform": {
			"x": 0,
			"y": 0,
			"z": 0,
			"pitch": 0,
			"yaw": 0,
			"roll": 0
		}
	},
	{
		"type": "Lidar",
		"name": "LidarFront",
		"params": {
			"LaserCount": 16,
			"MinDistance": 2.0,
			"MaxDistance": 100,
			"RotationFrequency": 10,
			"MeasurementsPerRotation": 360,
			"FieldOfView": 20,
			"CenterAngle": 0,
			"Compensated": true,
			"PointColor": "#ff000000",
			"Topic": "/test_velodyne_node_cloud_front",
			"Frame": "base_link"
		},
		"transform": {
			"x": 0,
			"y": 0.02,
			"z": 1.8,
			"pitch": 0,
			"yaw": 0,
			"roll": 0
		}
	},
	{
		"type": "Lidar",
		"name": "LidarRear",
		"params": {
			"LaserCount": 16,
			"MinDistance": 2.0,
			"MaxDistance": 100,
			"RotationFrequency": 10,
			"MeasurementsPerRotation": 360,
			"FieldOfView": 20,
			"CenterAngle": 0,
			"Compensated": true,
			"PointColor": "#ff000000",
			"Topic": "/test_velodyne_node_cloud_rear",
			"Frame": "base_link_rear"
		},
		"transform": {
			"x": 0,
			"y": 1.8,
			"z": -1.17,
			"pitch": 0,
			"yaw": 0,
			"roll": 0
		}
	},
	{
		"type": "Color Camera",
		"name": "Main Camera",
		"params": {
			"Width": 1920,
			"Height": 1080,
			"Frequency": 15,
			"JpegQuality": 75,
			"FieldOfView": 50,
			"MinDistance": 0.1,
			"MaxDistance": 1000,
			"Topic": "/simulator/camera_node/image/compressed",
			"Frame": "camera"
		},
		"transform": {
			"x": 0,
			"y": 1.7,
			"z": -0.2,
			"pitch": 0,
			"yaw": 0,
			"roll": 0
		}
	},
	{
		"type": "Vehicle Control",
		"name": "Autoware Car Control",
		"params": {
			"Topic": "/vehicle_cmd"
		}
	},
	{
		"type": "Keyboard Control",
		"name": "Keyboard Car Control"
	}
]
